<?xml version="1.0" encoding="UTF-8" standalone="no"?>
<svg
   xmlns:i="http://ns.adobe.com/AdobeIllustrator/10.0/"
   xmlns:dc="http://purl.org/dc/elements/1.1/"
   xmlns:cc="http://creativecommons.org/ns#"
   xmlns:rdf="http://www.w3.org/1999/02/22-rdf-syntax-ns#"
   xmlns:svg="http://www.w3.org/2000/svg"
   xmlns="http://www.w3.org/2000/svg"
   xmlns:sodipodi="http://sodipodi.sourceforge.net/DTD/sodipodi-0.dtd"
   xmlns:inkscape="http://www.inkscape.org/namespaces/inkscape"
   version="1.1"
   x="0px"
   y="0px"
   viewBox="0 0 100 125"
   style="enable-background:new 0 0 100 100;"
   xml:space="preserve"
   id="svg26"
   sodipodi:docname="microblogging.svg"
   inkscape:version="0.92.3 (2405546, 2018-03-11)"><metadata
     id="metadata32"><rdf:RDF><cc:Work
         rdf:about=""><dc:format>image/svg+xml</dc:format><dc:type
           rdf:resource="http://purl.org/dc/dcmitype/StillImage" /></cc:Work></rdf:RDF></metadata><defs
     id="defs30" /><sodipodi:namedview
     pagecolor="#ffffff"
     bordercolor="#666666"
     borderopacity="1"
     objecttolerance="10"
     gridtolerance="10"
     guidetolerance="10"
     inkscape:pageopacity="0"
     inkscape:pageshadow="2"
     inkscape:window-width="640"
     inkscape:window-height="480"
     id="namedview28"
     showgrid="false"
     inkscape:zoom="1.888"
     inkscape:cx="50"
     inkscape:cy="62.5"
     inkscape:window-x="0"
     inkscape:window-y="0"
     inkscape:window-maximized="0"
     inkscape:current-layer="svg26" /><switch
     id="switch20"><foreignObject
       requiredExtensions="http://ns.adobe.com/AdobeIllustrator/10.0/"
       x="0"
       y="0"
       width="1"
       height="1" /><g
       i:extraneous="self"
       id="g18"><g
         id="g10"><path
           d="M5273.1,2400.1v-2c0-2.8-5-4-9.7-4s-9.7,1.3-9.7,4v2c0,1.8,0.7,3.6,2,4.9l5,4.9c0.3,0.3,0.4,0.6,0.4,1v6.4     c0,0.4,0.2,0.7,0.6,0.8l2.9,0.9c0.5,0.1,1-0.2,1-0.8v-7.2c0-0.4,0.2-0.7,0.4-1l5.1-5C5272.4,2403.7,5273.1,2401.9,5273.1,2400.1z      M5263.4,2400c-4.8,0-7.4-1.3-7.5-1.8v0c0.1-0.5,2.7-1.8,7.5-1.8c4.8,0,7.3,1.3,7.5,1.8C5270.7,2398.7,5268.2,2400,5263.4,2400z"
           id="path2" /><path
           d="M5268.4,2410.3c-0.6,0-1,0.4-1,1c0,0.6,0.4,1,1,1h4.3c0.6,0,1-0.4,1-1c0-0.6-0.4-1-1-1H5268.4z"
           id="path4" /><path
           d="M5272.7,2413.7h-4.3c-0.6,0-1,0.4-1,1c0,0.6,0.4,1,1,1h4.3c0.6,0,1-0.4,1-1C5273.7,2414.1,5273.3,2413.7,5272.7,2413.7z"
           id="path6" /><path
           d="M5272.7,2417h-4.3c-0.6,0-1,0.4-1,1c0,0.6,0.4,1,1,1h4.3c0.6,0,1-0.4,1-1C5273.7,2417.5,5273.3,2417,5272.7,2417z"
           id="path8" /></g><g
         id="g16"><path
           d="M78.1,2.5H21.9c-9.9,0-18,8.1-18,18v39c0,9.9,8.1,18,18,18h1.6V87c0,4.4,2.7,8.2,6.8,9.8c1.2,0.5,2.5,0.7,3.7,0.7     c2.9,0,5.8-1.3,7.8-3.6l14.5-16.5h21.8c9.9,0,18-8.1,18-18v-39C96,10.6,88,2.5,78.1,2.5z M87.7,59.4c0,5.3-4.3,9.6-9.6,9.6H54.4     c-1.2,0-2.3,0.5-3.1,1.4l-15.7,18c-0.9,1-1.9,0.7-2.3,0.6c-0.4-0.2-1.4-0.7-1.4-2V73.2c0-2.3-1.9-4.2-4.2-4.2h-5.8     c-5.3,0-9.6-4.3-9.6-9.6v-39c0-5.3,4.3-9.6,9.6-9.6h56.1c5.3,0,9.6,4.3,9.6,9.6V59.4z"
           id="path12" /><path
           d="M68.9,27.2h-3.6l0.7-3.4c0.5-2.3-1-4.5-3.2-4.9c-2.3-0.5-4.5,1-4.9,3.2l-1.1,5.1h-8.4l0.7-3.4c0.5-2.3-1-4.5-3.2-4.9     c-2.3-0.5-4.5,1-4.9,3.2l-1.1,5.1h-5.3c-2.3,0-4.2,1.9-4.2,4.2s1.9,4.2,4.2,4.2h3.6l-1.8,8.5h-5.3c-2.3,0-4.2,1.9-4.2,4.2     s1.9,4.2,4.2,4.2h3.6L34,55.9c-0.5,2.3,1,4.5,3.2,4.9c0.3,0.1,0.6,0.1,0.8,0.1c1.9,0,3.7-1.4,4.1-3.3l1.1-5.1h8.4l-0.7,3.4     c-0.5,2.3,1,4.5,3.2,4.9c0.3,0.1,0.6,0.1,0.8,0.1c1.9,0,3.7-1.4,4.1-3.3l1.1-5.1h5.3c2.3,0,4.2-1.9,4.2-4.2s-1.9-4.2-4.2-4.2     h-3.6l1.8-8.5h5.3c2.3,0,4.2-1.9,4.2-4.2S71.2,27.2,68.9,27.2z M53.3,44.1h-8.4l1.8-8.5h8.4L53.3,44.1z"
           id="path14" /></g></g></switch></svg>