<?xml version="1.0" encoding="UTF-8" standalone="no"?>
<svg
   xmlns:i="http://ns.adobe.com/AdobeIllustrator/10.0/"
   xmlns:dc="http://purl.org/dc/elements/1.1/"
   xmlns:cc="http://creativecommons.org/ns#"
   xmlns:rdf="http://www.w3.org/1999/02/22-rdf-syntax-ns#"
   xmlns:svg="http://www.w3.org/2000/svg"
   xmlns="http://www.w3.org/2000/svg"
   xmlns:sodipodi="http://sodipodi.sourceforge.net/DTD/sodipodi-0.dtd"
   xmlns:inkscape="http://www.inkscape.org/namespaces/inkscape"
   version="1.1"
   x="0px"
   y="0px"
   viewBox="0 0 100 125"
   style="enable-background:new 0 0 100 100;"
   xml:space="preserve"
   id="svg22"
   sodipodi:docname="streaming.svg"
   inkscape:version="0.92.3 (2405546, 2018-03-11)"><metadata
     id="metadata28"><rdf:RDF><cc:Work
         rdf:about=""><dc:format>image/svg+xml</dc:format><dc:type
           rdf:resource="http://purl.org/dc/dcmitype/StillImage" /></cc:Work></rdf:RDF></metadata><defs
     id="defs26" /><sodipodi:namedview
     pagecolor="#ffffff"
     bordercolor="#666666"
     borderopacity="1"
     objecttolerance="10"
     gridtolerance="10"
     guidetolerance="10"
     inkscape:pageopacity="0"
     inkscape:pageshadow="2"
     inkscape:window-width="640"
     inkscape:window-height="480"
     id="namedview24"
     showgrid="false"
     inkscape:zoom="1.888"
     inkscape:cx="50"
     inkscape:cy="62.5"
     inkscape:window-x="0"
     inkscape:window-y="0"
     inkscape:window-maximized="0"
     inkscape:current-layer="svg22" /><switch
     id="switch16"><foreignObject
       requiredExtensions="http://ns.adobe.com/AdobeIllustrator/10.0/"
       x="0"
       y="0"
       width="1"
       height="1" /><g
       i:extraneous="self"
       id="g14"><g
         id="g12"><path
           d="M7.5,58.1c-1.7,0-3.1,1.4-3.1,3.1s1.4,3.1,3.1,3.1c14,0,25.3,11.3,25.3,25.3c0,1.7,1.4,3.1,3.1,3.1     c1.7,0,3.1-1.4,3.1-3.1C39,72.2,24.9,58.1,7.5,58.1z"
           id="path2" /><path
           d="M7.5,71.3c-1.7,0-3.1,1.4-3.1,3.1c0,1.7,1.4,3.1,3.1,3.1c6.7,0,12.1,5.4,12.1,12.1c0,1.7,1.4,3.1,3.1,3.1     c1.7,0,3.1-1.4,3.1-3.1C25.8,79.5,17.6,71.3,7.5,71.3z"
           id="path4" /><path
           d="M7.5,84.6c-2.8,0-5,2.3-5,5c0,2.8,2.3,5.1,5,5.1c2.8,0,5.1-2.3,5.1-5.1C12.6,86.8,10.3,84.6,7.5,84.6z"
           id="path6" /><path
           d="M97.5,29.5c0-13.3-10.9-24.2-24.2-24.2c-12.3,0-22.4,9.2-24,21.1H7.5c-1.7,0-3.1,1.4-3.1,3.1V48c0,1.7,1.4,3.1,3.1,3.1     s3.1-1.4,3.1-3.1V32.6h38.7c1.5,11.3,10.8,20.2,22.3,21v32.8H49.2c-1.7,0-3.1,1.4-3.1,3.1c0,1.7,1.4,3.1,3.1,3.1h25.5     c1.7,0,3.1-1.4,3.1-3.1V53.3C89,51.2,97.5,41.3,97.5,29.5z M73.3,47.6c-9.9,0-18-8.1-18-18c0-9.9,8.1-18,18-18     c9.9,0,18,8.1,18,18C91.3,39.5,83.2,47.6,73.3,47.6z"
           id="path8" /><path
           d="M69.8,20.9c-1-0.6-2.2,0-2.2,1.2v14.8c0,1.1,1.3,1.8,2.2,1.2l11.1-7.4c0.9-0.6,0.9-1.8,0-2.4L69.8,20.9z"
           id="path10" /></g></g></switch></svg>